option('fmt_lib', type: 'string', value: 'fmt-5.3.0')
option('json_lib', type: 'string', value: 'json-3.6.1')
option('sfml_lib', type: 'string', value: 'SFML-2.5.1')
option('spdlog_lib', type: 'string', value: 'spdlog-1.7.0')
option('stb_rect_pack_lib', type: 'string', value: 'stb_rect_pack')
option('lua_lib', type: 'string', value:  'lua-5.3.5')
option('noise_lib', type: 'string', value: 'libnoise-1.0.0')
option('box2d_lib', type: 'string', value: 'box2d')
option('glm_lib', type: 'string', value: 'glm-0.9.9.8')
